{
  "data": {
    "data": [
      {
        "id": 18,
        "zone": "North",
        "name": "J.K. Cycles",
        "address": "53&amp;54, Sewak Park , Uttam Nagar",
        "lng": null,
        "lat": null,
        "state": "Delhi",
        "city": "Delhi",
        "picode": "110059",
        "telephone": "9911527456",
        "fax": "",
        "mobile": "8287207744",
        "email": "",
        "website": "",
        "description": "",
        "status": "1",
        "Type": "HSS",
        "Tier": "Tier 1",
        "Store_Type": "MBO",
        "deleted_at": null,
        "created_at": "2021-02-15 06:28:17",
        "updated_at": "2021-02-15 07:07:09"
      },
      {
        "id": 274,
        "zone": "South",
        "name": "Popular Cycle Mart",
        "address": "12/1319,T.S.M Complex , Priyadarshni Road",
        "lng": null,
        "lat": null,
        "state": "Kerala",
        "city": "Palakkad",
        "picode": "678001",
        "telephone": "0491-2522590",
        "fax": "",
        "mobile": "9495922590",
        "email": "",
        "website": "",
        "description": "",
        "status": "1",
        "Type": "HSS",
        "Tier": "Tier 3",
        "Store_Type": "MBO",
        "deleted_at": null,
        "created_at": "2021-02-15 06:28:17",
        "updated_at": "2021-02-15 07:07:09"
      },
      {
        "id": 19,
        "zone": "North",
        "name": "Jagdish Cycle Stores",
        "address": "Cycle Dealer , Railway Road",
        "lng": null,
        "lat": null,
        "state": "Haryana",
        "city": "Charkhi Dadri",
        "picode": "127306",
        "telephone": "01250-220695",
        "fax": "",
        "mobile": "9813390013",
        "email": "",
        "website": "",
        "description": "",
        "status": "1",
        "Type": "HSS",
        "Tier": "Tier 3",
        "Store_Type": "MBO",
        "deleted_at": null,
        "created_at": "2021-02-15 06:28:17",
        "updated_at": "2021-02-15 07:07:09"
      },
      {
        "id": 275,
        "zone": "South",
        "name": "Safari Cycles",
        "address": "Kp-7/733-B,East Kodur , Chattipparamba Post",
        "lng": null,
        "lat": null,
        "state": "Kerala",
        "city": "Malappuram",
        "picode": "676504",
        "telephone": "0483-2730198",
        "fax": "",
        "mobile": "9562600200",
        "email": "",
        "website": "",
        "description": "",
        "status": "1",
        "Type": "HSS",
        "Tier": "Tier 2",
        "Store_Type": "MBO",
        "deleted_at": null,
        "created_at": "2021-02-15 06:28:17",
        "updated_at": "2021-02-15 07:07:09"
      },
      {
        "id": 20,
        "zone": "North",
        "name": "Jain Cycle Mart",
        "address": "Cycle Dealer , Jagadhri Road",
        "lng": null,
        "lat": null,
        "state": "Haryana",
        "city": "Yamunanagar",
        "picode": "135001",
        "telephone": "01732-225112",
        "fax": "",
        "mobile": "9416274642",
        "email": "",
        "website": "",
        "description": "",
        "status": "1",
        "Type": "HSS",
        "Tier": "Tier 3",
        "Store_Type": "MBO",
        "deleted_at": null,
        "created_at": "2021-02-15 06:28:17",
        "updated_at": "2021-02-15 07:07:09"
      },
      {
        "id": 276,
        "zone": "South",
        "name": "Keerthi Cycles",
        "address": "M.M Shopping Complex , Rajeev Gandhi Road",
        "lng": null,
        "lat": null,
        "state": "Kerala",
        "city": "Kannur",
        "picode": "670001",
        "telephone": "0497-2707045",
        "fax": "",
        "mobile": "9895332372",
        "email": "",
        "website": "",
        "description": "",
        "status": "1",
        "Type": "HSS",
        "Tier": "Tier 2",
        "Store_Type": "MBO",
        "deleted_at": null,
        "created_at": "2021-02-15 06:28:17",
        "updated_at": "2021-02-15 07:07:09"
      },
      {
        "id": 21,
        "zone": "North",
        "name": "Arya Cycle Works",
        "address": "Cycle Dealer , Railway Road",
        "lng": null,
        "lat": null,
        "state": "Haryana",
        "city": "Karnal",
        "picode": "132001",
        "telephone": "0184-2253623",
        "fax": "",
        "mobile": "9255819352",
        "email": "",
        "website": "",
        "description": "",
        "status": "1",
        "Type": "HSS",
        "Tier": "Tier 3",
        "Store_Type": "MBO",
        "deleted_at": null,
        "created_at": "2021-02-15 06:28:17",
        "updated_at": "2021-02-15 07:07:09"
      },
      {
        "id": 277,
        "zone": "South",
        "name": "Just Buy Cycles",
        "address": "No. 18/5, Surumi Plaza,East Fort Road,Fort Maidan,",
        "lng": null,
        "lat": null,
        "state": "Kerala",
        "city": "Palakkad",
        "picode": "678001",
        "telephone": "4912504343",
        "fax": "",
        "mobile": "9400459034",
        "email": "",
        "website": "",
        "description": "",
        "status": "1",
        "Type": "HSS",
        "Tier": "Tier 2",
        "Store_Type": "MBO",
        "deleted_at": null,
        "created_at": "2021-02-15 06:28:17",
        "updated_at": "2021-02-15 07:07:09"
      },
      {
        "id": 22,
        "zone": "North",
        "name": "Chadha Cycle Stores",
        "address": "S.N.O.13 &amp; 14 , Amba Complex,Staff Road",
        "lng": null,
        "lat": null,
        "state": "Haryana",
        "city": "Ambala Cantt",
        "picode": "133001",
        "telephone": "0171-2640871",
        "fax": "",
        "mobile": "9416085668",
        "email": "",
        "website": "",
        "description": "",
        "status": "1",
        "Type": "HSS",
        "Tier": "Tier 3",
        "Store_Type": "MBO",
        "deleted_at": null,
        "created_at": "2021-02-15 06:28:17",
        "updated_at": "2021-02-15 07:07:09"
      },
      {
        "id": 278,
        "zone": "South",
        "name": "Just Buy Cycles",
        "address": "28/296, Nayaf Building,Opp. Punnapara Vayalar Smarakam,Thiruvanandhapuram High Road,Pazhaveedu, Alappuzha",
        "lng": null,
        "lat": null,
        "state": "Kerala",
        "city": "Alappuzha",
        "picode": "688009",
        "telephone": "4912504343",
        "fax": "",
        "mobile": "9400459034",
        "email": "",
        "website": "",
        "description": "",
        "status": "1",
        "Type": "HSS",
        "Tier": "Tier 2",
        "Store_Type": "MBO",
        "deleted_at": null,
        "created_at": "2021-02-15 06:28:17",
        "updated_at": "2021-02-15 07:07:09"
      },
      {
        "id": 23,
        "zone": "North",
        "name": "Janta Cycle Store",
        "address": "Cycle Dealer , Ambedkar Chowk",
        "lng": null,
        "lat": null,
        "state": "Haryana",
        "city": "Kurukshetra",
        "picode": "132118",
        "telephone": "9416413200",
        "fax": "",
        "mobile": "9416413200",
        "email": "",
        "website": "",
        "description": "",
        "status": "1",
        "Type": "HSS",
        "Tier": "Tier 3",
        "Store_Type": "MBO",
        "deleted_at": null,
        "created_at": "2021-02-15 06:28:17",
        "updated_at": "2021-02-15 07:07:09"
      },
      {
        "id": 279,
        "zone": "South",
        "name": "Just Buy Cycles",
        "address": "Door #53/2093A Ponnurunni, Vytilla,(Opposite To Narayaneswaram Temple)Ernakulam",
        "lng": null,
        "lat": null,
        "state": "Kerala",
        "city": "Cochin",
        "picode": "682032",
        "telephone": "4912504343",
        "fax": "",
        "mobile": "9400459034",
        "email": "",
        "website": "",
        "description": "",
        "status": "1",
        "Type": "HSS",
        "Tier": "Tier 2",
        "Store_Type": "MBO",
        "deleted_at": null,
        "created_at": "2021-02-15 06:28:17",
        "updated_at": "2021-02-15 07:07:09"
      },
      {
        "id": 24,
        "zone": "North",
        "name": "Jain Cycle Bhandar",
        "address": "Railway Road, Rohtak Station Diary Mohalla",
        "lng": null,
        "lat": null,
        "state": "Haryana",
        "city": "Rohtak",
        "picode": "124001",
        "telephone": "01262-269155",
        "fax": "",
        "mobile": "9896418811",
        "email": "",
        "website": "",
        "description": "",
        "status": "1",
        "Type": "HSS",
        "Tier": "Tier 3",
        "Store_Type": "MBO",
        "deleted_at": null,
        "created_at": "2021-02-15 06:28:17",
        "updated_at": "2021-02-15 07:07:09"
      },
      {
        "id": 280,
        "zone": "South",
        "name": "Just Buy Cycles",
        "address": "Tc 17/3285-1,Pattom (Opp Lic Office),Trivandrum",
        "lng": null,
        "lat": null,
        "state": "Kerala",
        "city": "Trivindrum",
        "picode": "695004",
        "telephone": "4912504343",
        "fax": "",
        "mobile": "9400459034",
        "email": "",
        "website": "",
        "description": "",
        "status": "1",
        "Type": "HSS",
        "Tier": "Tier 2",
        "Store_Type": "MBO",
        "deleted_at": null,
        "created_at": "2021-02-15 06:28:17",
        "updated_at": "2021-02-15 07:07:09"
      },
      {
        "id": 25,
        "zone": "North",
        "name": "New Radhey Shyam And Sons",
        "address": "10-Nehru Market, Jharsa Rd, Roshan Pura",
        "lng": null,
        "lat": null,
        "state": "Haryana",
        "city": "Gurgaon",
        "picode": "122001",
        "telephone": "0124-2328616",
        "fax": "",
        "mobile": "9899236486",
        "email": "",
        "website": "",
        "description": "",
        "status": "1",
        "Type": "HSS",
        "Tier": "Tier 1",
        "Store_Type": "EBO",
        "deleted_at": null,
        "created_at": "2021-02-15 06:28:17",
        "updated_at": "2021-02-15 07:07:09"
      }
    ],
    "filters": {
      "name": null,
      "email": null,
      "mobile": null,
      "city": null,
      "state": null,
      "limit": "15",
      "page": "4"
    },
    "properties": {
      "defaut_image": "https://www.herocycles.com/admin/public/uploads/accessory/no-image-accessory.png",
      "image_url": "https://www.herocycles.com/admin/public/uploads/accessory"
    }
  },
  "links": {
    "first": "https://www.herocycles.com/admin/public/api/stores?page=1",
    "last": "https://www.herocycles.com/admin/public/api/stores?page=169",
    "prev": "https://www.herocycles.com/admin/public/api/stores?page=3",
    "next": "https://www.herocycles.com/admin/public/api/stores?page=5"
  },
  "meta": {
    "current_page": 4,
    "from": 46,
    "last_page": 169,
    "path": "https://www.herocycles.com/admin/public/api/stores",
    "per_page": "15",
    "to": 60,
    "total": 2527
  }
}
